com/edu/agh/sei/ParkingPlaceSensor.class
com/edu/agh/sei/ParkingPlaceSensorImplService.class
com/edu/agh/sei/GetAllParkingPlacesResponse.class
com/edu/agh/sei/MarkParkingPlace.class
com/edu/agh/sei/GetAllParkingPlaces.class
com/edu/agh/sei/ParkingPlaceDetailsDTO.class
com/edu/agh/sei/MarkParkingPlaceResponse.class
com/edu/agh/sei/ParkingPlaceState.class
com/edu/agh/sei/ObjectFactory.class
com/edu/agh/managed/beans/Index.class
com/edu/agh/sei/package-info.class
